%YAML 1.1
%TAG !u! tag:unity3d.com,2011:
--- !u!1045 &1
EditorBuildSettings:
  m_ObjectHideFlags: 0
  serializedVersion: 2
  m_Scenes:
  - enabled: 1
    path: Assets/Scenes/ScFulll.unity
    guid: 65d0cbbebd454f148964f1023d83f36d
  - enabled: 1
    path: Assets/Scenes/GameOverScene.unity
    guid: d363ef5449e30e34e8749110ae387dd9
  m_configObjects:
    UnityEditor.XR.ARCore.ARCoreSettings: {fileID: 11400000, guid: 3dfd0f685de6da443b636b39eea5dceb,
      type: 2}
    com.unity.xr.arfoundation.simulation_settings: {fileID: 11400000, guid: 596692ceb79bc804093ce0145e217f92,
      type: 2}
    com.unity.xr.management.loader_settings: {fileID: 11400000, guid: 621b41a217e44c24b9582ac25b45abd2,
      type: 2}
